{
  "minimumVersion" : 1,
  "packages" : [
    {
      "title" : null,
      "name" : "Modern Tech Pack",
      "version" : "2019-04-13-13-06-02",
      "location" : "modern-tech-pack.json",
      "priority" : 0
    },
	{
      "title" : null,
      "name" : "Sammes Tech Pack 1.16.5",
      "version" : "2022-06-23-14-58-20",
      "location" : "sammecraft.json",
      "priority" : 1
    },
	{
	  "title" : null,
      "name" : "Sammes Pixelmon",
	  "version" : "2022-07-11-19-12-09",
	  "location" : "pixelmon.json",
      "priority" : 1
	}
  ]
}